outputs/nickos/img_conv_output.txt
Info: [VCS_SAVE_RESTORE_INFO] ASLR (Address Space Layout Randomization) is detected on the machine. To enable $save functionality, ASLR will be switched off and simv re-executed.
Please use '-no_save' simv switch to avoid re-execution or '-suppress=ASLR_DETECTED_INFO' to suppress this message.
Chronologic VCS simulator copyright 1991-2024
Contains Synopsys proprietary information.
Compiler version W-2024.09-SP2-5_Full64; Runtime version W-2024.09-SP2-5_Full64;  May  4 12:16 2026
t=0 pxl_in=0 | pxl_out=x valid=0
t=10000 pxl_in=0 | pxl_out=0 valid=0
t=31000 pxl_in=127 | pxl_out=0 valid=0
t=50000 pxl_in=127 | pxl_out=127 valid=0
t=70000 pxl_in=127 | pxl_out=381 valid=0
t=71000 pxl_in=128 | pxl_out=381 valid=0
t=90000 pxl_in=128 | pxl_out=x valid=0
t=110000 pxl_in=128 | pxl_out=511 valid=0
t=130000 pxl_in=128 | pxl_out=512 valid=0
t=131000 pxl_in=129 | pxl_out=512 valid=0
t=150000 pxl_in=129 | pxl_out=513 valid=0
t=170000 pxl_in=129 | pxl_out=515 valid=0
t=171000 pxl_in=128 | pxl_out=515 valid=0
t=190000 pxl_in=128 | pxl_out=x valid=0
t=210000 pxl_in=128 | pxl_out=513 valid=0
t=211000 pxl_in=127 | pxl_out=513 valid=0
t=230000 pxl_in=127 | pxl_out=511 valid=0
t=231000 pxl_in=126 | pxl_out=511 valid=0
t=250000 pxl_in=126 | pxl_out=635 valid=0
t=251000 pxl_in=125 | pxl_out=635 valid=0
t=270000 pxl_in=125 | pxl_out=885 valid=0
t=290000 pxl_in=125 | pxl_out=1010 valid=0
t=291000 pxl_in=126 | pxl_out=1010 valid=0
t=310000 pxl_in=126 | pxl_out=1012 valid=0
t=311000 pxl_in=128 | pxl_out=1012 valid=0
t=330000 pxl_in=128 | pxl_out=1017 valid=0
t=350000 pxl_in=128 | pxl_out=1023 valid=0
t=351000 pxl_in=126 | pxl_out=1023 valid=0
t=370000 pxl_in=126 | pxl_out=1025 valid=0
t=371000 pxl_in=123 | pxl_out=1025 valid=0
t=390000 pxl_in=123 | pxl_out=1018 valid=0
t=391000 pxl_in=118 | pxl_out=1018 valid=0
t=410000 pxl_in=118 | pxl_out=1003 valid=0
t=411000 pxl_in=115 | pxl_out=1003 valid=0
t=430000 pxl_in=115 | pxl_out=985 valid=0
t=431000 pxl_in=116 | pxl_out=985 valid=0
t=450000 pxl_in=116 | pxl_out=972 valid=0
t=451000 pxl_in=118 | pxl_out=972 valid=0
t=470000 pxl_in=118 | pxl_out=969 valid=0
t=471000 pxl_in=119 | pxl_out=969 valid=0
t=490000 pxl_in=119 | pxl_out=972 valid=0
t=491000 pxl_in=118 | pxl_out=972 valid=0
t=510000 pxl_in=118 | pxl_out=975 valid=0
t=511000 pxl_in=116 | pxl_out=975 valid=0
t=530000 pxl_in=116 | pxl_out=976 valid=0
t=531000 pxl_in=115 | pxl_out=976 valid=0
t=550000 pxl_in=115 | pxl_out=975 valid=0
t=551000 pxl_in=113 | pxl_out=975 valid=0
t=570000 pxl_in=113 | pxl_out=969 valid=0
t=571000 pxl_in=112 | pxl_out=969 valid=0
t=590000 pxl_in=112 | pxl_out=956 valid=0
t=591000 pxl_in=110 | pxl_out=956 valid=0
t=610000 pxl_in=110 | pxl_out=937 valid=0
t=611000 pxl_in=107 | pxl_out=937 valid=0
t=630000 pxl_in=107 | pxl_out=913 valid=0
t=631000 pxl_in=105 | pxl_out=913 valid=0
t=650000 pxl_in=105 | pxl_out=893 valid=0
t=651000 pxl_in=104 | pxl_out=893 valid=0
t=670000 pxl_in=104 | pxl_out=886 valid=0
t=671000 pxl_in=129 | pxl_out=886 valid=0
t=690000 pxl_in=129 | pxl_out=913 valid=0
t=710000 pxl_in=129 | pxl_out=965 valid=0
t=711000 pxl_in=130 | pxl_out=965 valid=0
t=730000 pxl_in=130 | pxl_out=988 valid=0
t=731000 pxl_in=131 | pxl_out=988 valid=0
t=750000 pxl_in=131 | pxl_out=985 valid=0
t=770000 pxl_in=131 | pxl_out=982 valid=0
t=771000 pxl_in=132 | pxl_out=982 valid=0
t=790000 pxl_in=132 | pxl_out=978 valid=0
t=810000 pxl_in=132 | pxl_out=974 valid=0
t=811000 pxl_in=131 | pxl_out=974 valid=0
t=830000 pxl_in=131 | pxl_out=966 valid=0
t=831000 pxl_in=130 | pxl_out=966 valid=0
t=850000 pxl_in=130 | pxl_out=953 valid=0
t=851000 pxl_in=129 | pxl_out=953 valid=0
t=870000 pxl_in=129 | pxl_out=941 valid=0
t=871000 pxl_in=128 | pxl_out=941 valid=0
t=890000 pxl_in=128 | pxl_out=958 valid=0
t=891000 pxl_in=127 | pxl_out=958 valid=0
t=910000 pxl_in=127 | pxl_out=1003 valid=0
t=911000 pxl_in=126 | pxl_out=1003 valid=0
t=930000 pxl_in=126 | pxl_out=1025 valid=0
t=931000 pxl_in=125 | pxl_out=1025 valid=0
t=950000 pxl_in=125 | pxl_out=1024 valid=0
t=951000 pxl_in=126 | pxl_out=1024 valid=0
t=970000 pxl_in=126 | pxl_out=1025 valid=0
t=971000 pxl_in=128 | pxl_out=1025 valid=0
t=990000 pxl_in=128 | pxl_out=1030 valid=0
t=1010000 pxl_in=128 | pxl_out=1037 valid=0
t=1011000 pxl_in=125 | pxl_out=1037 valid=0
t=1030000 pxl_in=125 | pxl_out=1036 valid=0
t=1031000 pxl_in=120 | pxl_out=1036 valid=0
t=1050000 pxl_in=120 | pxl_out=1022 valid=0
t=1051000 pxl_in=118 | pxl_out=1022 valid=0
t=1070000 pxl_in=118 | pxl_out=1003 valid=0
t=1090000 pxl_in=118 | pxl_out=990 valid=0
t=1091000 pxl_in=120 | pxl_out=990 valid=0
t=1110000 pxl_in=120 | pxl_out=986 valid=0
t=1111000 pxl_in=122 | pxl_out=986 valid=0
t=1130000 pxl_in=122 | pxl_out=988 valid=0
t=1131000 pxl_in=121 | pxl_out=988 valid=0
t=1150000 pxl_in=121 | pxl_out=989 valid=0
t=1151000 pxl_in=119 | pxl_out=989 valid=0
t=1170000 pxl_in=119 | pxl_out=985 valid=0
t=1171000 pxl_in=117 | pxl_out=985 valid=0
t=1190000 pxl_in=117 | pxl_out=981 valid=0
t=1191000 pxl_in=115 | pxl_out=981 valid=0
t=1210000 pxl_in=115 | pxl_out=978 valid=0
t=1230000 pxl_in=115 | pxl_out=971 valid=0
t=1231000 pxl_in=114 | pxl_out=971 valid=0
t=1250000 pxl_in=114 | pxl_out=957 valid=0
t=1251000 pxl_in=112 | pxl_out=957 valid=0
t=1270000 pxl_in=112 | pxl_out=938 valid=0
t=1271000 pxl_in=108 | pxl_out=938 valid=0
t=1290000 pxl_in=108 | pxl_out=920 valid=0
t=1291000 pxl_in=109 | pxl_out=920 valid=0
t=1310000 pxl_in=109 | pxl_out=911 valid=0
t=1311000 pxl_in=132 | pxl_out=911 valid=0
t=1330000 pxl_in=132 | pxl_out=938 valid=0
t=1350000 pxl_in=132 | pxl_out=990 valid=1
t=1351000 pxl_in=133 | pxl_out=990 valid=1
t=1370000 pxl_in=133 | pxl_out=1012 valid=1
t=1390000 pxl_in=133 | pxl_out=1007 valid=1
t=1410000 pxl_in=133 | pxl_out=1000 valid=1
t=1411000 pxl_in=134 | pxl_out=1000 valid=1
t=1430000 pxl_in=134 | pxl_out=995 valid=1
t=1450000 pxl_in=134 | pxl_out=994 valid=1
t=1451000 pxl_in=133 | pxl_out=994 valid=1
t=1470000 pxl_in=133 | pxl_out=990 valid=1
t=1490000 pxl_in=133 | pxl_out=979 valid=1
t=1491000 pxl_in=132 | pxl_out=979 valid=1
t=1510000 pxl_in=132 | pxl_out=968 valid=1
t=1511000 pxl_in=130 | pxl_out=968 valid=1
t=1530000 pxl_in=130 | pxl_out=985 valid=1
t=1531000 pxl_in=129 | pxl_out=985 valid=1
t=1550000 pxl_in=129 | pxl_out=1026 valid=1
t=1551000 pxl_in=127 | pxl_out=1026 valid=1
t=1570000 pxl_in=127 | pxl_out=1044 valid=1
t=1571000 pxl_in=126 | pxl_out=1044 valid=1
t=1590000 pxl_in=126 | pxl_out=1040 valid=1
t=1591000 pxl_in=125 | pxl_out=1040 valid=1
t=1610000 pxl_in=125 | pxl_out=1036 valid=1
t=1611000 pxl_in=126 | pxl_out=1036 valid=1
t=1630000 pxl_in=126 | pxl_out=1035 valid=1
t=1631000 pxl_in=127 | pxl_out=1035 valid=1
t=1650000 pxl_in=127 | pxl_out=1039 valid=1
t=1651000 pxl_in=126 | pxl_out=1039 valid=1
t=1670000 pxl_in=126 | pxl_out=1041 valid=1
t=1671000 pxl_in=124 | pxl_out=1041 valid=1
t=1690000 pxl_in=124 | pxl_out=1036 valid=1
t=1691000 pxl_in=122 | pxl_out=1036 valid=1
t=1710000 pxl_in=122 | pxl_out=1027 valid=1
t=1711000 pxl_in=121 | pxl_out=1027 valid=1
t=1730000 pxl_in=121 | pxl_out=1016 valid=1
t=1750000 pxl_in=121 | pxl_out=1006 valid=1
t=1751000 pxl_in=122 | pxl_out=1006 valid=1
t=1770000 pxl_in=122 | pxl_out=1000 valid=1
t=1771000 pxl_in=123 | pxl_out=1000 valid=1
t=1790000 pxl_in=123 | pxl_out=997 valid=1
t=1791000 pxl_in=122 | pxl_out=997 valid=1
t=1810000 pxl_in=122 | pxl_out=994 valid=1
t=1811000 pxl_in=120 | pxl_out=994 valid=1
t=1830000 pxl_in=120 | pxl_out=989 valid=1
t=1831000 pxl_in=118 | pxl_out=989 valid=1
t=1850000 pxl_in=118 | pxl_out=984 valid=1
t=1870000 pxl_in=118 | pxl_out=980 valid=1
t=1890000 pxl_in=118 | pxl_out=975 valid=1
t=1891000 pxl_in=117 | pxl_out=975 valid=1
t=1910000 pxl_in=117 | pxl_out=967 valid=1
t=1911000 pxl_in=114 | pxl_out=967 valid=1
t=1930000 pxl_in=114 | pxl_out=955 valid=1
t=1950000 pxl_in=114 | pxl_out=944 valid=0
t=1951000 pxl_in=135 | pxl_out=944 valid=0
t=1970000 pxl_in=135 | pxl_out=962 valid=0
t=1971000 pxl_in=136 | pxl_out=962 valid=0
t=1990000 pxl_in=136 | pxl_out=1008 valid=1
t=2010000 pxl_in=136 | pxl_out=1033 valid=1
t=2030000 pxl_in=136 | pxl_out=1031 valid=1
t=2050000 pxl_in=136 | pxl_out=1024 valid=1
t=2070000 pxl_in=136 | pxl_out=1018 valid=1
t=2090000 pxl_in=136 | pxl_out=1016 valid=1
t=2110000 pxl_in=136 | pxl_out=1015 valid=1
t=2130000 pxl_in=136 | pxl_out=1010 valid=1
t=2131000 pxl_in=134 | pxl_out=1010 valid=1
t=2150000 pxl_in=134 | pxl_out=1001 valid=1
t=2151000 pxl_in=133 | pxl_out=1001 valid=1
t=2170000 pxl_in=133 | pxl_out=1014 valid=1
t=2171000 pxl_in=131 | pxl_out=1014 valid=1
t=2190000 pxl_in=131 | pxl_out=1051 valid=1
t=2191000 pxl_in=129 | pxl_out=1051 valid=1
t=2210000 pxl_in=129 | pxl_out=1067 valid=1
t=2211000 pxl_in=127 | pxl_out=1067 valid=1
t=2230000 pxl_in=127 | pxl_out=1060 valid=1
t=2231000 pxl_in=125 | pxl_out=1060 valid=1
t=2250000 pxl_in=125 | pxl_out=1052 valid=1
t=2251000 pxl_in=124 | pxl_out=1052 valid=1
t=2270000 pxl_in=124 | pxl_out=1045 valid=1
t=2271000 pxl_in=125 | pxl_out=1045 valid=1
t=2290000 pxl_in=125 | pxl_out=1042 valid=1
t=2291000 pxl_in=126 | pxl_out=1042 valid=1
t=2310000 pxl_in=126 | pxl_out=1044 valid=1
t=2311000 pxl_in=127 | pxl_out=1044 valid=1
t=2330000 pxl_in=127 | pxl_out=1048 valid=1
t=2331000 pxl_in=126 | pxl_out=1048 valid=1
t=2351000 pxl_in=124 | pxl_out=1048 valid=1
t=2370000 pxl_in=124 | pxl_out=1040 valid=1
t=2371000 pxl_in=123 | pxl_out=1040 valid=1
t=2390000 pxl_in=123 | pxl_out=1028 valid=1
t=2410000 pxl_in=123 | pxl_out=1017 valid=1
t=2411000 pxl_in=124 | pxl_out=1017 valid=1
t=2430000 pxl_in=124 | pxl_out=1009 valid=1
t=2450000 pxl_in=124 | pxl_out=1003 valid=1
t=2451000 pxl_in=123 | pxl_out=1003 valid=1
t=2470000 pxl_in=123 | pxl_out=996 valid=1
t=2471000 pxl_in=122 | pxl_out=996 valid=1
t=2490000 pxl_in=122 | pxl_out=990 valid=1
t=2491000 pxl_in=121 | pxl_out=990 valid=1
t=2510000 pxl_in=121 | pxl_out=988 valid=1
t=2530000 pxl_in=121 | pxl_out=989 valid=1
t=2550000 pxl_in=121 | pxl_out=990 valid=1
t=2570000 pxl_in=121 | pxl_out=987 valid=1
t=2590000 pxl_in=121 | pxl_out=981 valid=0
t=2591000 pxl_in=138 | pxl_out=981 valid=0
t=2610000 pxl_in=138 | pxl_out=994 valid=0
t=2611000 pxl_in=139 | pxl_out=994 valid=0
t=2630000 pxl_in=139 | pxl_out=1029 valid=1
t=2631000 pxl_in=140 | pxl_out=1029 valid=1
t=2650000 pxl_in=140 | pxl_out=1051 valid=1
t=2670000 pxl_in=140 | pxl_out=1054 valid=1
t=2690000 pxl_in=140 | pxl_out=1052 valid=1
t=2710000 pxl_in=140 | pxl_out=1048 valid=1
t=2730000 pxl_in=140 | pxl_out=1045 valid=1
t=2731000 pxl_in=139 | pxl_out=1045 valid=1
t=2750000 pxl_in=139 | pxl_out=1043 valid=1
t=2770000 pxl_in=139 | pxl_out=1041 valid=1
t=2771000 pxl_in=137 | pxl_out=1041 valid=1
t=2790000 pxl_in=137 | pxl_out=1038 valid=1
t=2791000 pxl_in=135 | pxl_out=1038 valid=1
t=2810000 pxl_in=135 | pxl_out=1049 valid=1
t=2811000 pxl_in=133 | pxl_out=1049 valid=1
t=2830000 pxl_in=133 | pxl_out=1076 valid=1
t=2831000 pxl_in=131 | pxl_out=1076 valid=1
t=2850000 pxl_in=131 | pxl_out=1088 valid=1
t=2851000 pxl_in=129 | pxl_out=1088 valid=1
t=2870000 pxl_in=129 | pxl_out=1083 valid=1
t=2871000 pxl_in=127 | pxl_out=1083 valid=1
t=2890000 pxl_in=127 | pxl_out=1076 valid=1
t=2891000 pxl_in=125 | pxl_out=1076 valid=1
t=2910000 pxl_in=125 | pxl_out=1068 valid=1
t=2930000 pxl_in=125 | pxl_out=1062 valid=1
t=2931000 pxl_in=126 | pxl_out=1062 valid=1
t=2950000 pxl_in=126 | pxl_out=1060 valid=1
t=2951000 pxl_in=127 | pxl_out=1060 valid=1
t=2970000 pxl_in=127 | pxl_out=1061 valid=1
t=2971000 pxl_in=128 | pxl_out=1061 valid=1
t=2990000 pxl_in=128 | pxl_out=1062 valid=1
t=3010000 pxl_in=128 | pxl_out=1059 valid=1
t=3011000 pxl_in=127 | pxl_out=1059 valid=1
t=3030000 pxl_in=127 | pxl_out=1051 valid=1
t=3031000 pxl_in=125 | pxl_out=1051 valid=1
t=3050000 pxl_in=125 | pxl_out=1039 valid=1
t=3070000 pxl_in=125 | pxl_out=1026 valid=1
t=3071000 pxl_in=127 | pxl_out=1026 valid=1
t=3090000 pxl_in=127 | pxl_out=1018 valid=1
t=3091000 pxl_in=128 | pxl_out=1018 valid=1
t=3110000 pxl_in=128 | pxl_out=1015 valid=1
t=3130000 pxl_in=128 | pxl_out=1013 valid=1
t=3131000 pxl_in=126 | pxl_out=1013 valid=1
t=3150000 pxl_in=126 | pxl_out=1011 valid=1
t=3151000 pxl_in=124 | pxl_out=1011 valid=1
t=3170000 pxl_in=124 | pxl_out=1008 valid=1
t=3171000 pxl_in=123 | pxl_out=1008 valid=1
t=3190000 pxl_in=123 | pxl_out=1005 valid=1
t=3191000 pxl_in=125 | pxl_out=1005 valid=1
t=3210000 pxl_in=125 | pxl_out=1006 valid=1
t=3211000 pxl_in=126 | pxl_out=1006 valid=1
t=3230000 pxl_in=126 | pxl_out=1010 valid=0
t=3231000 pxl_in=142 | pxl_out=1010 valid=0
t=3250000 pxl_in=142 | pxl_out=1026 valid=0
t=3270000 pxl_in=142 | pxl_out=1054 valid=1
t=3271000 pxl_in=143 | pxl_out=1054 valid=1
t=3290000 pxl_in=143 | pxl_out=1071 valid=1
t=3291000 pxl_in=144 | pxl_out=1071 valid=1
t=3310000 pxl_in=144 | pxl_out=1079 valid=1
t=3330000 pxl_in=144 | pxl_out=1086 valid=1
t=3370000 pxl_in=144 | pxl_out=1080 valid=1
t=3371000 pxl_in=142 | pxl_out=1080 valid=1
t=3390000 pxl_in=142 | pxl_out=1071 valid=1
t=3391000 pxl_in=140 | pxl_out=1071 valid=1
t=3410000 pxl_in=140 | pxl_out=1063 valid=1
t=3411000 pxl_in=139 | pxl_out=1063 valid=1
t=3430000 pxl_in=139 | pxl_out=1060 valid=1
t=3431000 pxl_in=137 | pxl_out=1060 valid=1
t=3450000 pxl_in=137 | pxl_out=1074 valid=1
t=3451000 pxl_in=134 | pxl_out=1074 valid=1
t=3470000 pxl_in=134 | pxl_out=1099 valid=1
t=3471000 pxl_in=132 | pxl_out=1099 valid=1
t=3490000 pxl_in=132 | pxl_out=1106 valid=1
t=3491000 pxl_in=131 | pxl_out=1106 valid=1
t=3510000 pxl_in=131 | pxl_out=1101 valid=1
t=3511000 pxl_in=129 | pxl_out=1101 valid=1
t=3530000 pxl_in=129 | pxl_out=1098 valid=1
t=3531000 pxl_in=127 | pxl_out=1098 valid=1
t=3550000 pxl_in=127 | pxl_out=1092 valid=1
t=3551000 pxl_in=125 | pxl_out=1092 valid=1
t=3570000 pxl_in=125 | pxl_out=1084 valid=1
t=3590000 pxl_in=125 | pxl_out=1076 valid=1
t=3591000 pxl_in=126 | pxl_out=1076 valid=1
t=3610000 pxl_in=126 | pxl_out=1069 valid=1
t=3611000 pxl_in=127 | pxl_out=1069 valid=1
t=3630000 pxl_in=127 | pxl_out=1065 valid=1
t=3631000 pxl_in=129 | pxl_out=1065 valid=1
t=3650000 pxl_in=129 | pxl_out=1064 valid=1
t=3670000 pxl_in=129 | pxl_out=1061 valid=1
t=3671000 pxl_in=128 | pxl_out=1061 valid=1
t=3690000 pxl_in=128 | pxl_out=1052 valid=1
t=3691000 pxl_in=127 | pxl_out=1052 valid=1
t=3710000 pxl_in=127 | pxl_out=1041 valid=1
t=3730000 pxl_in=127 | pxl_out=1032 valid=1
t=3731000 pxl_in=130 | pxl_out=1032 valid=1
t=3750000 pxl_in=130 | pxl_out=1027 valid=1
t=3751000 pxl_in=132 | pxl_out=1027 valid=1
t=3771000 pxl_in=130 | pxl_out=1027 valid=1
t=3790000 pxl_in=130 | pxl_out=1026 valid=1
t=3791000 pxl_in=128 | pxl_out=1026 valid=1
t=3810000 pxl_in=128 | pxl_out=1021 valid=1
t=3811000 pxl_in=126 | pxl_out=1021 valid=1
t=3830000 pxl_in=126 | pxl_out=1016 valid=1
t=3831000 pxl_in=129 | pxl_out=1016 valid=1
t=3850000 pxl_in=129 | pxl_out=1018 valid=1
t=3851000 pxl_in=125 | pxl_out=1018 valid=1
t=3870000 pxl_in=125 | pxl_out=1023 valid=0
t=3871000 pxl_in=146 | pxl_out=1023 valid=0
t=3890000 pxl_in=146 | pxl_out=1040 valid=0
t=3891000 pxl_in=148 | pxl_out=1040 valid=0
t=3910000 pxl_in=148 | pxl_out=1077 valid=1
t=3911000 pxl_in=147 | pxl_out=1077 valid=1
t=3930000 pxl_in=147 | pxl_out=1098 valid=1
t=3950000 pxl_in=147 | pxl_out=1100 valid=1
t=3970000 pxl_in=147 | pxl_out=1107 valid=1
t=3990000 pxl_in=147 | pxl_out=1112 valid=1
t=4010000 pxl_in=147 | pxl_out=1108 valid=1
t=4011000 pxl_in=145 | pxl_out=1108 valid=1
t=4030000 pxl_in=145 | pxl_out=1098 valid=1
t=4031000 pxl_in=143 | pxl_out=1098 valid=1
t=4050000 pxl_in=143 | pxl_out=1089 valid=1
t=4051000 pxl_in=140 | pxl_out=1089 valid=1
t=4070000 pxl_in=140 | pxl_out=1080 valid=1
t=4071000 pxl_in=139 | pxl_out=1080 valid=1
t=4090000 pxl_in=139 | pxl_out=1087 valid=1
t=4091000 pxl_in=136 | pxl_out=1087 valid=1
t=4110000 pxl_in=136 | pxl_out=1119 valid=1
t=4111000 pxl_in=134 | pxl_out=1119 valid=1
t=4130000 pxl_in=134 | pxl_out=1134 valid=1
t=4131000 pxl_in=133 | pxl_out=1134 valid=1
t=4150000 pxl_in=133 | pxl_out=1126 valid=1
t=4151000 pxl_in=131 | pxl_out=1126 valid=1
t=4170000 pxl_in=131 | pxl_out=1119 valid=1
t=4171000 pxl_in=129 | pxl_out=1119 valid=1
t=4190000 pxl_in=129 | pxl_out=1112 valid=1
t=4191000 pxl_in=127 | pxl_out=1112 valid=1
t=4210000 pxl_in=127 | pxl_out=1104 valid=1
t=4211000 pxl_in=126 | pxl_out=1104 valid=1
t=4230000 pxl_in=126 | pxl_out=1095 valid=1
t=4231000 pxl_in=125 | pxl_out=1095 valid=1
t=4250000 pxl_in=125 | pxl_out=1084 valid=1
t=4251000 pxl_in=126 | pxl_out=1084 valid=1
t=4270000 pxl_in=126 | pxl_out=1073 valid=1
t=4271000 pxl_in=129 | pxl_out=1073 valid=1
t=4290000 pxl_in=129 | pxl_out=1068 valid=1
t=4291000 pxl_in=131 | pxl_out=1068 valid=1
t=4310000 pxl_in=131 | pxl_out=1069 valid=1
t=4330000 pxl_in=131 | pxl_out=1067 valid=1
t=4350000 pxl_in=131 | pxl_out=1061 valid=1
t=4351000 pxl_in=128 | pxl_out=1061 valid=1
t=4370000 pxl_in=128 | pxl_out=1052 valid=1
t=4371000 pxl_in=129 | pxl_out=1052 valid=1
t=4390000 pxl_in=129 | pxl_out=1040 valid=1
t=4391000 pxl_in=132 | pxl_out=1040 valid=1
t=4410000 pxl_in=132 | pxl_out=1034 valid=1
t=4411000 pxl_in=134 | pxl_out=1034 valid=1
t=4430000 pxl_in=134 | pxl_out=1036 valid=1
t=4431000 pxl_in=132 | pxl_out=1036 valid=1
t=4451000 pxl_in=131 | pxl_out=1036 valid=1
t=4470000 pxl_in=131 | pxl_out=1031 valid=1
t=4471000 pxl_in=126 | pxl_out=1031 valid=1
t=4490000 pxl_in=126 | pxl_out=1026 valid=1
t=4491000 pxl_in=107 | pxl_out=1026 valid=1
t=4510000 pxl_in=107 | pxl_out=1005 valid=0
t=4511000 pxl_in=150 | pxl_out=1005 valid=0
t=4530000 pxl_in=150 | pxl_out=1012 valid=0
t=4531000 pxl_in=152 | pxl_out=1012 valid=0
t=4550000 pxl_in=152 | pxl_out=1083 valid=1
t=4551000 pxl_in=151 | pxl_out=1083 valid=1
t=4570000 pxl_in=151 | pxl_out=1126 valid=1
t=4571000 pxl_in=150 | pxl_out=1126 valid=1
t=4590000 pxl_in=150 | pxl_out=1120 valid=1
t=4610000 pxl_in=150 | pxl_out=1119 valid=1
t=4630000 pxl_in=150 | pxl_out=1127 valid=1
t=4631000 pxl_in=149 | pxl_out=1127 valid=1
t=4650000 pxl_in=149 | pxl_out=1131 valid=1
t=4651000 pxl_in=147 | pxl_out=1131 valid=1
t=4670000 pxl_in=147 | pxl_out=1124 valid=1
t=4671000 pxl_in=145 | pxl_out=1124 valid=1
t=4690000 pxl_in=145 | pxl_out=1108 valid=1
t=4691000 pxl_in=142 | pxl_out=1108 valid=1
t=4710000 pxl_in=142 | pxl_out=1069 valid=1
t=4711000 pxl_in=140 | pxl_out=1069 valid=1
t=4730000 pxl_in=140 | pxl_out=1059 valid=1
t=4731000 pxl_in=138 | pxl_out=1059 valid=1
t=4750000 pxl_in=138 | pxl_out=1119 valid=1
t=4751000 pxl_in=136 | pxl_out=1119 valid=1
t=4770000 pxl_in=136 | pxl_out=1157 valid=1
t=4771000 pxl_in=135 | pxl_out=1157 valid=1
t=4790000 pxl_in=135 | pxl_out=1149 valid=1
t=4791000 pxl_in=134 | pxl_out=1149 valid=1
t=4810000 pxl_in=134 | pxl_out=1141 valid=1
t=4811000 pxl_in=132 | pxl_out=1141 valid=1
t=4830000 pxl_in=132 | pxl_out=1135 valid=1
t=4831000 pxl_in=130 | pxl_out=1135 valid=1
t=4850000 pxl_in=130 | pxl_out=1127 valid=1
t=4851000 pxl_in=127 | pxl_out=1127 valid=1
t=4870000 pxl_in=127 | pxl_out=1114 valid=1
t=4871000 pxl_in=126 | pxl_out=1114 valid=1
t=4890000 pxl_in=126 | pxl_out=1098 valid=1
t=4891000 pxl_in=125 | pxl_out=1098 valid=1
t=4910000 pxl_in=125 | pxl_out=1083 valid=1
t=4911000 pxl_in=127 | pxl_out=1083 valid=1
t=4930000 pxl_in=127 | pxl_out=1072 valid=1
t=4931000 pxl_in=130 | pxl_out=1072 valid=1
t=4950000 pxl_in=130 | pxl_out=1069 valid=1
t=4951000 pxl_in=132 | pxl_out=1069 valid=1
t=4970000 pxl_in=132 | pxl_out=1071 valid=1
t=4971000 pxl_in=134 | pxl_out=1071 valid=1
t=4990000 pxl_in=134 | pxl_out=1073 valid=1
t=4991000 pxl_in=131 | pxl_out=1073 valid=1
t=5010000 pxl_in=131 | pxl_out=1071 valid=1
t=5011000 pxl_in=130 | pxl_out=1071 valid=1
t=5030000 pxl_in=130 | pxl_out=1061 valid=1
t=5031000 pxl_in=131 | pxl_out=1061 valid=1
t=5050000 pxl_in=131 | pxl_out=1050 valid=1
t=5051000 pxl_in=135 | pxl_out=1050 valid=1
t=5070000 pxl_in=135 | pxl_out=1046 valid=1
t=5071000 pxl_in=138 | pxl_out=1046 valid=1
t=5090000 pxl_in=138 | pxl_out=1049 valid=1
t=5091000 pxl_in=131 | pxl_out=1049 valid=1
t=5110000 pxl_in=131 | pxl_out=1046 valid=1
t=5111000 pxl_in=107 | pxl_out=1046 valid=1
t=5130000 pxl_in=107 | pxl_out=1010 valid=1
t=5131000 pxl_in=129 | pxl_out=1010 valid=1
t=5150000 pxl_in=129 | pxl_out=983 valid=0
t=5151000 pxl_in=154 | pxl_out=983 valid=0
t=5170000 pxl_in=154 | pxl_out=1038 valid=0
t=5190000 pxl_in=154 | pxl_out=1119 valid=1
t=5210000 pxl_in=154 | pxl_out=1147 valid=1
t=5211000 pxl_in=153 | pxl_out=1147 valid=1
t=5230000 pxl_in=153 | pxl_out=1141 valid=1
t=5250000 pxl_in=153 | pxl_out=1135 valid=1
t=5270000 pxl_in=153 | pxl_out=1139 valid=1
t=5271000 pxl_in=151 | pxl_out=1139 valid=1
t=5290000 pxl_in=151 | pxl_out=1149 valid=1
t=5291000 pxl_in=149 | pxl_out=1149 valid=1
t=5310000 pxl_in=149 | pxl_out=1146 valid=1
t=5311000 pxl_in=147 | pxl_out=1146 valid=1
t=5330000 pxl_in=147 | pxl_out=1103 valid=1
t=5331000 pxl_in=145 | pxl_out=1103 valid=1
t=5350000 pxl_in=145 | pxl_out=1062 valid=1
t=5351000 pxl_in=142 | pxl_out=1062 valid=1
t=5370000 pxl_in=142 | pxl_out=1098 valid=1
t=5371000 pxl_in=141 | pxl_out=1098 valid=1
t=5390000 pxl_in=141 | pxl_out=1161 valid=1
t=5391000 pxl_in=140 | pxl_out=1161 valid=1
t=5410000 pxl_in=140 | pxl_out=1180 valid=1
t=5411000 pxl_in=138 | pxl_out=1180 valid=1
t=5430000 pxl_in=138 | pxl_out=1174 valid=1
t=5431000 pxl_in=136 | pxl_out=1174 valid=1
t=5450000 pxl_in=136 | pxl_out=1165 valid=1
t=5451000 pxl_in=135 | pxl_out=1165 valid=1
t=5470000 pxl_in=135 | pxl_out=1157 valid=1
t=5471000 pxl_in=132 | pxl_out=1157 valid=1
t=5490000 pxl_in=132 | pxl_out=1148 valid=1
t=5491000 pxl_in=130 | pxl_out=1148 valid=1
t=5510000 pxl_in=130 | pxl_out=1133 valid=1
t=5511000 pxl_in=128 | pxl_out=1133 valid=1
t=5530000 pxl_in=128 | pxl_out=1116 valid=1
t=5531000 pxl_in=126 | pxl_out=1116 valid=1
t=5550000 pxl_in=126 | pxl_out=1100 valid=1
t=5551000 pxl_in=125 | pxl_out=1100 valid=1
t=5570000 pxl_in=125 | pxl_out=1084 valid=1
t=5571000 pxl_in=127 | pxl_out=1084 valid=1
t=5590000 pxl_in=127 | pxl_out=1073 valid=1
t=5591000 pxl_in=132 | pxl_out=1073 valid=1
t=5610000 pxl_in=132 | pxl_out=1075 valid=1
t=5611000 pxl_in=135 | pxl_out=1075 valid=1
t=5630000 pxl_in=135 | pxl_out=1085 valid=1
t=5631000 pxl_in=136 | pxl_out=1085 valid=1
t=5650000 pxl_in=136 | pxl_out=1090 valid=1
t=5651000 pxl_in=134 | pxl_out=1090 valid=1
t=5670000 pxl_in=134 | pxl_out=1086 valid=1
t=5671000 pxl_in=133 | pxl_out=1086 valid=1
t=5690000 pxl_in=133 | pxl_out=1075 valid=1
t=5691000 pxl_in=136 | pxl_out=1075 valid=1
t=5710000 pxl_in=136 | pxl_out=1065 valid=1
t=5730000 pxl_in=136 | pxl_out=1061 valid=1
t=5731000 pxl_in=111 | pxl_out=1061 valid=1
t=5750000 pxl_in=111 | pxl_out=1031 valid=1
t=5751000 pxl_in=130 | pxl_out=1031 valid=1
t=5770000 pxl_in=130 | pxl_out=993 valid=1
t=5771000 pxl_in=147 | pxl_out=993 valid=1
t=5790000 pxl_in=147 | pxl_out=1021 valid=0
t=5791000 pxl_in=155 | pxl_out=1021 valid=0
t=5810000 pxl_in=155 | pxl_out=1090 valid=0
t=5811000 pxl_in=157 | pxl_out=1090 valid=0
t=5830000 pxl_in=157 | pxl_out=1140 valid=1
t=5850000 pxl_in=157 | pxl_out=1164 valid=1
t=5851000 pxl_in=156 | pxl_out=1164 valid=1
